%YAML 1.1
%TAG !u! tag:unity3d.com,2011:
--- !u!114 &11400000
MonoBehaviour:
  m_ObjectHideFlags: 0
  m_CorrespondingSourceObject: {fileID: 0}
  m_PrefabInstance: {fileID: 0}
  m_PrefabAsset: {fileID: 0}
  m_GameObject: {fileID: 0}
  m_Enabled: 1
  m_EditorHideFlags: 0
  m_Script: {fileID: 11500000, guid: 5c2c6c964adbe1b45817b93897f20cd5, type: 3}
  m_Name: Hammer
  m_EditorClassIdentifier: 
  prefab: {fileID: 1804172083994442726, guid: b05dd31b5ee6c8949a9a0e20c2dd2290, type: 3}
  type: 1
  space:
    x: 2
    y: 3
  item:
    _ID: 17
    Name: 
    uidisplay: {fileID: 0}
  description: 
  damage: {x: 1, y: 8}
  dmgtype: 2
