%YAML 1.1
%TAG !u! tag:unity3d.com,2011:
--- !u!114 &11400000
MonoBehaviour:
  m_ObjectHideFlags: 0
  m_CorrespondingSourceObject: {fileID: 0}
  m_PrefabInstance: {fileID: 0}
  m_PrefabAsset: {fileID: 0}
  m_GameObject: {fileID: 0}
  m_Enabled: 1
  m_EditorHideFlags: 0
  m_Script: {fileID: 11500000, guid: 5c2c6c964adbe1b45817b93897f20cd5, type: 3}
  m_Name: Knife
  m_EditorClassIdentifier: 
  uidisplay: {fileID: 21300000, guid: edcc4767946474d47bb876e71409583e, type: 3}
  prefab: {fileID: 1804172083994442726, guid: 79a426d8b127bdc4b864efb6f9ac2bb5, type: 3}
  type: 1
  space:
    x: 1
    y: 2
  item:
    _ID: 3
    Name: 
  description: 
  damage: {x: 1, y: 4}
  dmgtype: 0
