%YAML 1.1
%TAG !u! tag:unity3d.com,2011:
--- !u!114 &11400000
MonoBehaviour:
  m_ObjectHideFlags: 0
  m_CorrespondingSourceObject: {fileID: 0}
  m_PrefabInstance: {fileID: 0}
  m_PrefabAsset: {fileID: 0}
  m_GameObject: {fileID: 0}
  m_Enabled: 1
  m_EditorHideFlags: 0
  m_Script: {fileID: 11500000, guid: 46ecf2bd2b153f3448973ed617254dfb, type: 3}
  m_Name: CharacterBackpack
  m_EditorClassIdentifier: 
  size:
    x: 10
    y: 6
    z: 1
  open:
    x: 5
    y: 0
    z: 0
  database: {fileID: 11400000, guid: 134b28d1270596740b905d658010f59e, type: 2}
  grid:
    reorderableList:
      canAdd: 1
      canRemove: 1
      draggable: 1
      expandable: 1
      multipleSelection: 1
      isExpanded: 1
      label:
        m_Text: Keys
        m_Image: {fileID: 0}
        m_Tooltip: 
      headerHeight: 18
      footerHeight: 13
      slideEasing: 0.15
      verticalSpacing: 2
      showDefaultBackground: 1
      elementDisplayType: 0
      elementNameProperty: 
      elementNameOverride: 
      elementIcon: {fileID: 0}
    reqReferences: {fileID: 0}
    isExpanded: 1
    _keyValues:
    - x: 0
      y: 0
      z: 0
    - x: 1
      y: 0
      z: 0
    - x: 2
      y: 0
      z: 0
    - x: 3
      y: 0
      z: 0
    - x: 4
      y: 0
      z: 0
    _keys:
    - x: 0
      y: 0
      z: 0
    - x: 1
      y: 0
      z: 0
    - x: 2
      y: 0
      z: 0
    - x: 3
      y: 0
      z: 0
    - x: 4
      y: 0
      z: 0
    _values:
    - _ID: 2
      item: {fileID: 11400000, guid: a39bef57d8596ae45a737be8ea548214, type: 2}
      amount: 5
    - _ID: 2
      item: {fileID: 11400000, guid: a39bef57d8596ae45a737be8ea548214, type: 2}
      amount: 5
    - _ID: 4
      item: {fileID: 11400000, guid: e40ee969b1d86e34586ab9f9c6167be2, type: 2}
      amount: 200
    - _ID: 1
      item: {fileID: 11400000, guid: 4fb2b8d174b491b4ab8507ae51e18f49, type: 2}
      amount: 4
    - _ID: 3
      item: {fileID: 11400000, guid: 7a96db0c391c1fc4e915e4bd7e4ee597, type: 2}
      amount: 6
