%YAML 1.1
%TAG !u! tag:unity3d.com,2011:
--- !u!114 &11400000
MonoBehaviour:
  m_ObjectHideFlags: 0
  m_CorrespondingSourceObject: {fileID: 0}
  m_PrefabInstance: {fileID: 0}
  m_PrefabAsset: {fileID: 0}
  m_GameObject: {fileID: 0}
  m_Enabled: 1
  m_EditorHideFlags: 0
  m_Script: {fileID: 11500000, guid: ff6d4dba63c84a74e85cde00cfb8535c, type: 3}
  m_Name: Database
  m_EditorClassIdentifier: 
  Itens:
  - {fileID: 11400000, guid: 2ad4d7ee5017d0a46a612d597a936202, type: 2}
  - {fileID: 11400000, guid: 4fb2b8d174b491b4ab8507ae51e18f49, type: 2}
  - {fileID: 11400000, guid: a39bef57d8596ae45a737be8ea548214, type: 2}
  - {fileID: 11400000, guid: 7a96db0c391c1fc4e915e4bd7e4ee597, type: 2}
  - {fileID: 11400000, guid: e40ee969b1d86e34586ab9f9c6167be2, type: 2}
